Titanic Facts
…
Substitum el NA per 30

allT$Age = replace_na(allT$Age,30)

Cas de Boarded: comprovem que files sn:

allT[is.na(allT$Boarded), ]

## # A tibble: 62 x 11
##    Name     Age Boarded Position Lifeboat Body  Sex   Class Group Survived    ID
##    <chr>  <dbl> <chr>   <chr>    <chr>    <chr> <chr> <dbl> <chr> <lgl>    <dbl>
##  1 Combe    21 <NA>    Fireman 3        <NA>  m         0 Engi TRUE      1378
##  2 Dillo    25 <NA>    Trimmer  4        <NA>  m         0 Engi TRUE      1398
##  3 Kench    37 <NA>    Greaser  <NA>     <NA>  m         0 Engi FALSE     1478
##  4 Kerr,    26 <NA>    Fireman <NA>     <NA>  m         0 Engi FALSE     1479
##  5 Kinse    30 <NA>    Fireman <NA>     <NA>  m         0 Engi FALSE     1480
##  6 Kirkh    43 <NA>    Greaser  <NA>     <NA>  m         0 Engi FALSE     1481
##  7 Lee.     18 <NA>    Trimmer  <NA>     <NA>  m         0 Engi FALSE     1484
##  8 Light    23 <NA>    Fireman <NA>     <NA>  m         0 Engi FALSE     1485
##  9 Light    47 <NA>    Fireman <NA>     <NA>  m         0 Engi FALSE     1486
## 10 Long,    28 <NA>    Trimmer  <NA>     <NA>  m         0 Engi FALSE     1489
## #  with 52 more rows
…
Salvats ordenats per crrec

allT %>%
  group_by(Position) %>%
  count(Survived) %>%
  rename(n_by_position=n)

## # A tibble: 247 x 3
## # Groups:   Position [213]
##    Position                Survived n_by_position
##    <chr>                   <lgl>            <int>
##  1 1classPass              FALSE              114
##  2 1classPass              TRUE               170
##  3 2classPass              FALSE              160
##  4 2classPass              TRUE               118
##  5 3classPass              FALSE              535
##  6 3classPass              TRUE               173
##  7 Able Seaman             FALSE                9
##  8 Able Seaman             TRUE                23
##  9 Assistant Baker         FALSE                2
## 10 Assistant Boots Steward FALSE                1
## #  with 237 more rows
…
Ocupaci dels bots:

bots=allT %>%
  group_by(Lifeboat) %>%
  count(Survived) %>%
  rename(n_by_boat=n)

Comprovem que plens anaven el bots (1 a 14 caben 65, 15 i 16, 40, els plegables A, B, C i D, 47):

bots$capacity=c(NA,rep(65,times=6),40,40,rep(65,times=8),rep(47,times=4))
bots$percentFull=100*bots$n_by_boat/bots$capacity
bots

## # A tibble: 21 x 5
## # Groups:   Lifeboat [21]
##    Lifeboat Survived n_by_boat capacity percentFull
##    <chr>    <lgl>        <int>    <dbl>       <dbl>
##  1 1        TRUE            18       NA        NA  
##  2 10       TRUE            31       65        47.7
##  3 11       TRUE            46       65        70.8
##  4 12       TRUE            20       65        30.8
##  5 13       TRUE            65       65       100  
##  6 14       TRUE            44       65        67.7
##  7 15       TRUE            59       65        90.8
##  8 16       TRUE            35       40        87.5
##  9 2        TRUE            20       40        50  
## 10 3        TRUE            39       65        60  
## #  with 11 more rows
…
