Titanic gràfiques
…
Salvats: distribució als bots

Comprovem que plens anaven el bots (1 a 14 caben 65, 15 i 16, 40, els plegables A, B, C i D, 47):

bots=allT %>%
  group_by(Lifeboat) %>%
  count(Survived) %>%
  rename(n_by_boat=n)
bots

## # A tibble: 21 x 3
## # Groups:   Lifeboat [21]
##    Lifeboat Survived n_by_boat
##    <fct>    <fct>        <int>
##  1 ""       False         1489
##  2 "1"      True            18
##  3 "10"     True            31
##  4 "11"     True            46
##  5 "12"     True            20
##  6 "13"     True            65
##  7 "14"     True            44
##  8 "15"     True            59
##  9 "16"     True            35
## 10 "2"      True            20
## # … with 11 more rows

Els 1489 són ofegats. Quin percentatge dels bots anava ple?

La resposta és molt variable: l’1 anava al 27,7% mentre que el 15 sobrecarregat al 147,5%:

bots$capacity=c(NA,rep(65,times=6),40,40,rep(65,times=8),rep(47,times=4))
bots$percentFull=100*bots$n_by_boat/bots$capacity
bots

## # A tibble: 21 x 5
## # Groups:   Lifeboat [21]
##    Lifeboat Survived n_by_boat capacity percentFull
##    <fct>    <fct>        <int>    <dbl>       <dbl>
##  1 ""       False         1489       NA        NA  
##  2 "1"      True            18       65        27.7
##  3 "10"     True            31       65        47.7
##  4 "11"     True            46       65        70.8
##  5 "12"     True            20       65        30.8
##  6 "13"     True            65       65       100  
##  7 "14"     True            44       65        67.7
##  8 "15"     True            59       40       148. 
##  9 "16"     True            35       40        87.5
## 10 "2"      True            20       65        30.8
## # … with 11 more rows
…
